
// save_items
                $model->setUnitofmeasuresetListid($item_obj->UnitOfMeasureSet_ListID);
                $model->setUnitusedfor($item_obj->UnitUsedFor);
                $model->setUnit($item_obj->Unit);


// populate_items
            'UnitOfMeasureSet_ListID' => $this->get_text_content($item, array('UnitOfMeasureSetRef','ListID')),
            'UnitUsedFor' => $this->get_text_content($item, array('UnitUsedFor')),
            'Unit' => $this->get_text_content($item, array('Unit')),


